simulation/qsim/fullSubtracter.msim.vcd
$comment
	File created using the following command:
		vcd file fullSubtracter.msim.vcd -direction
$end
$date
	Mon Dec 19 18:46:37 2022
$end
$version
	ModelSim Version 2020.1
$end
$timescale
	1ps
$end

$scope module calculator_vlg_vec_tst $end
$var reg 1 ! b0 $end
$var reg 1 " b000 $end
$var reg 1 # b1 $end
$var reg 1 $ b2 $end
$var reg 1 % b3 $end
$var reg 1 & b4 $end
$var reg 1 ' b5 $end
$var reg 1 ( b6 $end
$var reg 1 ) b7 $end
$var reg 1 * b111 $end
$var reg 1 + b222 $end
$var reg 1 , b333 $end
$var reg 1 - clk $end
$var reg 1 . fifty $end
$var reg 1 / grd1 $end
$var reg 1 0 grd2 $end
$var reg 1 1 grd3 $end
$var reg 1 2 hundred $end
$var reg 1 3 output_button $end
$var reg 1 4 pin_name1 $end
$var reg 1 5 pin_name2 $end
$var reg 1 6 pin_name3 $end
$var reg 1 7 pin_name4 $end
$var reg 1 8 pin_name5 $end
$var reg 1 9 pin_name6 $end
$var reg 1 : pin_name7 $end
$var reg 1 ; pin_name8 $end
$var reg 1 < reset $end
$var reg 1 = rst $end
$var wire 1 > a $end
$var wire 1 ? b $end
$var wire 1 @ C $end
$var wire 1 A c23 $end
$var wire 1 B com6 $end
$var wire 1 C com7 $end
$var wire 1 D com8 $end
$var wire 1 E D $end
$var wire 1 F d24 $end
$var wire 1 G e $end
$var wire 1 H f $end
$var wire 1 I g $end
$var wire 1 J G0 $end
$var wire 1 K G1 $end
$var wire 1 L G2 $end
$var wire 1 M G3 $end
$var wire 1 N R [3] $end
$var wire 1 O R [2] $end
$var wire 1 P R [1] $end
$var wire 1 Q R [0] $end
$var wire 1 R W $end
$var wire 1 S X $end
$var wire 1 T Y $end

$scope module i1 $end
$var wire 1 U gnd $end
$var wire 1 V vcc $end
$var wire 1 W unknown $end
$var tri1 1 X devclrn $end
$var tri1 1 Y devpor $end
$var tri1 1 Z devoe $end
$var wire 1 [ clk~combout $end
$var wire 1 \ fifty~combout $end
$var wire 1 ] hundred~combout $end
$var wire 1 ^ reset~combout $end
$var wire 1 _ inst9~regout $end
$var wire 1 ` inst1~combout $end
$var wire 1 a inst10~regout $end
$var wire 1 b inst11~regout $end
$var wire 1 c inst7~combout $end
$var wire 1 d inst19~0_combout $end
$var wire 1 e b4~combout $end
$var wire 1 f rst~combout $end
$var wire 1 g output_button~combout $end
$var wire 1 h b000~combout $end
$var wire 1 i inst29|inst~regout $end
$var wire 1 j inst30~combout $end
$var wire 1 k inst23|inst~regout $end
$var wire 1 l b6~combout $end
$var wire 1 m inst23|inst2~regout $end
$var wire 1 n b7~combout $end
$var wire 1 o b5~combout $end
$var wire 1 p inst23|inst1~regout $end
$var wire 1 q inst23|inst3~regout $end
$var wire 1 r inst42|inst21~0 $end
$var wire 1 s inst42|inst23~combout $end
$var wire 1 t inst42|inst25~combout $end
$var wire 1 u inst42|inst28~0 $end
$var wire 1 v inst42|inst28~1_combout $end
$var wire 1 w inst42|inst32~0_combout $end
$var wire 1 x inst42|inst35~0_combout $end
$var wire 1 y grd2~combout $end
$var wire 1 z grd1~combout $end
$var wire 1 { grd3~combout $end
$var wire 1 | pin_name4~combout $end
$var wire 1 } inst18~combout $end
$var wire 1 ~ inst24|inst3~regout $end
$var wire 1 !! pin_name3~combout $end
$var wire 1 "! inst24|inst2~regout $end
$var wire 1 #! pin_name2~combout $end
$var wire 1 $! inst24|inst1~regout $end
$var wire 1 %! pin_name1~combout $end
$var wire 1 &! inst24|inst~regout $end
$var wire 1 '! pin_name8~combout $end
$var wire 1 (! inst27|inst3~regout $end
$var wire 1 )! pin_name7~combout $end
$var wire 1 *! inst27|inst2~regout $end
$var wire 1 +! pin_name6~combout $end
$var wire 1 ,! inst27|inst1~regout $end
$var wire 1 -! pin_name5~combout $end
$var wire 1 .! inst27|inst~regout $end
$upscope $end
$upscope $end
$enddefinitions $end
#0
$dumpvars
x!
x"
x#
x$
x%
x&
x'
x(
x)
x*
x+
x,
0-
1.
x/
x0
x1
02
x3
x4
x5
x6
x7
x8
x9
x:
x;
0<
x=
1>
1?
0@
1A
xB
xC
xD
0E
1F
1G
1H
0I
0J
0K
0L
0M
0Q
0P
0O
0N
0R
0S
0T
0U
1V
xW
1X
1Y
1Z
0[
1\
0]
0^
0_
0`
0a
0b
0c
0d
xe
xf
xg
xh
0i
0j
0k
xl
0m
xn
xo
0p
0q
1r
1s
1t
1u
1v
1w
0x
xy
xz
x{
x|
0}
0~
x!!
0"!
x#!
0$!
x%!
0&!
x'!
0(!
x)!
0*!
x+!
0,!
x-!
0.!
$end
#20000
1-
1[
1_
1`
1T
#40000
0-
0[
#60000
1-
1[
1a
0_
0`
1S
0T
#80000
0-
0[
#100000
1-
1[
1_
1`
1T
#120000
0-
0[
#140000
1-
1[
1b
0a
0_
0`
1R
0S
0T
#160000
0-
0[
#180000
1-
1[
1_
1}
1c
1`
1T
1@
#200000
0-
0[
#220000
1-
1[
x&!
x$!
x"!
x~
0b
0_
0}
0c
0`
xJ
xK
xL
xM
0R
0T
0@
#240000
0-
0[
#260000
1-
1[
1_
1`
1T
#280000
0-
0[
#300000
1-
1[
1a
0_
0`
1S
0T
#320000
0-
0[
#340000
1-
1[
1_
1`
1T
#360000
0-
0[
#380000
1-
1[
1b
0a
0_
0`
1R
0S
0T
#400000
0-
0[
#420000
1-
1[
1_
1}
1c
1`
1T
1@
#440000
0-
0[
#460000
1-
1[
0b
0_
0}
0c
0`
0R
0T
0@
#480000
0-
0[
#500000
1-
1[
1_
1`
1T
#520000
0-
0[
#540000
1-
1[
1a
0_
0`
1S
0T
#560000
0-
0[
#580000
1-
1[
1_
1`
1T
#600000
0-
0[
#620000
1-
1[
1b
0a
0_
0`
1R
0S
0T
#640000
0-
0[
#660000
1-
1[
1_
1}
1c
1`
1T
1@
#680000
0-
0[
#700000
1-
1[
0b
0_
0}
0c
0`
0R
0T
0@
#720000
0-
0[
#740000
1-
1[
1_
1`
1T
#760000
0-
0[
#780000
1-
1[
1a
0_
0`
1S
0T
#800000
0-
0[
#820000
1-
1[
1_
1`
1T
#840000
0-
0[
#850000
1<
1^
0a
0_
0`
0S
0T
#860000
1-
1[
#880000
0-
0[
#890000
0<
0^
#900000
1-
1[
1_
1`
1T
#920000
0-
0[
#940000
1-
1[
1a
0_
0`
1S
0T
#960000
0-
0[
#980000
1-
1[
1_
1`
1T
